…
Both Conditions Combined
========================

Tokenize Sentences
------------------

``` r
tokenized <- text_df %>%
  unnest_tokens(word, text) # #convert sentence string to tokens
tokenized
```

    ## # A tibble: 459 x 3
    ##     line       condition      word
    ##    <int>          <fctr>     <chr>
    ##  1     1 pepsin_detector     these
    ##  2     1 pepsin_detector     birds
    ##  3     1 pepsin_detector      like
    ##  4     1 pepsin_detector creatures
    ##  5     1 pepsin_detector       all
    ##  6     1 pepsin_detector      have
    ##  7     1 pepsin_detector different
    ##  8     1 pepsin_detector  features
    ##  9     1 pepsin_detector      some
    ## 10     1 pepsin_detector        of
    ## # ... with 449 more rows

All Words Count
---------------

``` r
count_all_words <- tokenized %>%
  count(word, sort=TRUE)
count_all_words
```

    ## # A tibble: 147 x 2
    ##        word     n
    ##       <chr> <int>
    ##  1     have    27
    ##  2      the    20
    ##  3     some    19
    ##  4      and    17
    ##  5 feathers    17
    ##  6     head    13
    ##  7   pepsin    13
    ##  8       in    12
    ##  9       on    11
    ## 10       to    11
    ## # ... with 137 more rows
…
``` r
count_context_words <- tokenized %>%
  anti_join(stop_words) %>% #remove function words
  count(word, sort=TRUE)
```

    ## Joining, by = "word"

``` r
count_context_words
```

    ## # A tibble: 57 x 2
    ##        word     n
    ##       <chr> <int>
    ##  1 feathers    17
    ##  2     head    13
    ##  3   pepsin    13
    ##  4    bones     8
    ##  5     tail     8
    ##  6    tails     6
    ##  7    birds     4
    ##  8  species     4
    ##  9   colors     3
    ## 10     luck     3
    ## # ... with 47 more rows
…
tokenized_noPlurals <- text_noPlurals %>%
  unnest_tokens(word, text)

count_context_words_noPlurals <- tokenized_noPlurals %>%
  anti_join(stop_words) %>%
  count(word, sort=TRUE)
```

    ## Joining, by = "word"

``` r
count_context_words_noPlurals
```

    ## # A tibble: 48 x 2
    ##       word     n
    ##      <chr> <int>
    ##  1 feather    17
    ##  2  pepsin    16
    ##  3    tail    14
    ##  4    head    13
    ##  5    bone     8
    ##  6    bird     4
    ##  7   rambo     4
    ##  8 species     4
    ##  9     wug     4
    ## 10   color     3
    ## # ... with 38 more rows
…
