…
All Words Count
===============

``` r
#Count of all words
count_all_words <- tokenized %>%
  count(word, sort=TRUE)
count_all_words
```

    ## # A tibble: 160 x 2
    ##       word     n
    ##      <chr> <int>
    ##  1     are    49
    ##  2    blue    25
    ##  3  yellow    25
    ##  4     and    23
    ##  5    feps    22
    ##  6    wugs    22
    ##  7 lorches    20
    ##  8  purple    20
    ##  9     the    16
    ## 10    have    15
    ## # ... with 150 more rows

``` r
#Count of all words in Find Creature & [1,1,0.5] condition
count_all_words_findCreat_50 <- tokenized_findCreat_50 %>%
  count(word, sort=TRUE)
count_all_words_findCreat_50
```

    ## # A tibble: 73 x 2
    ##       word     n
    ##      <chr> <int>
    ##  1     are     9
    ##  2     and     7
    ##  3  yellow     7
    ##  4    blue     6
    ##  5    feps     6
    ##  6    have     6
    ##  7 lorches     6
    ##  8    wugs     6
    ##  9   heads     5
    ## 10      of     5
    ## # ... with 63 more rows

``` r
#Count of all words in Find All Creatures & [1,1,0.5] condition
count_all_words_findAll_50 <- tokenized_findAll_50 %>%
  count(word, sort=TRUE)
count_all_words_findAll_50
```

    ## # A tibble: 39 x 2
    ##       word     n
    ##      <chr> <int>
    ##  1    have     6
    ##  2 lorches     6
    ##  3     are     5
    ##  4     and     4
    ##  5    blue     4
    ##  6    feps     4
    ##  7      be     3
    ##  8  bodies     3
    ##  9     fep     3
    ## 10  longer     3
    ## # ... with 29 more rows

``` r
#Count of all words in Find Creature & [1,1,0.25] condition
count_all_words_findCreat_25 <- tokenized_findCreat_25 %>%
  count(word, sort=TRUE)
count_all_words_findCreat_25
```

    ## # A tibble: 69 x 2
    ##      word     n
    ##     <chr> <int>
    ##  1    are    12
    ##  2    and     6
    ##  3     to     6
    ##  4 yellow     6
    ##  5   feps     4
    ##  6    the     4
    ##  7   wugs     4
    ##  8     be     3
    ##  9  birds     3
    ## 10   blue     3
    ## # ... with 59 more rows

``` r
#Count of all words in Find All Creatures & [1,1,0.25] condition
count_all_words_findAll_25 <- tokenized_findAll_25 %>%
  count(word, sort=TRUE)
count_all_words_findAll_25
```

    ## # A tibble: 87 x 2
    ##      word     n
    ##     <chr> <int>
    ##  1    are    23
    ##  2   blue    12
    ##  3 purple    12
    ##  4    the    11
    ##  5   wugs     9
    ##  6 yellow     9
    ##  7    all     8
    ##  8   feps     8
    ##  9  lorch     8
    ## 10      a     6
    ## # ... with 77 more rows

``` r
count_all_words_byCond <- bind_rows(
  mutate(count_all_words_findCreat_50, condition="Find Creature", distribution="[1,1,0.50]"),
  mutate(count_all_words_findAll_50, condition="Find All", distribution="[1,1,0.25]"),
  mutate(count_all_words_findCreat_25, condition="Find Creature", distribution="[1,1,0.50]"),
  mutate(count_all_words_findAll_25, condition="Find All", distribution="[1,1,0.25]"))
count_all_words_byCond
```

    ## # A tibble: 268 x 4
    ##       word     n     condition distribution
    ##      <chr> <int>         <chr>        <chr>
    ##  1     are     9 Find Creature   [1,1,0.50]
    ##  2     and     7 Find Creature   [1,1,0.50]
    ##  3  yellow     7 Find Creature   [1,1,0.50]
    ##  4    blue     6 Find Creature   [1,1,0.50]
    ##  5    feps     6 Find Creature   [1,1,0.50]
    ##  6    have     6 Find Creature   [1,1,0.50]
    ##  7 lorches     6 Find Creature   [1,1,0.50]
    ##  8    wugs     6 Find Creature   [1,1,0.50]
    ##  9   heads     5 Find Creature   [1,1,0.50]
    ## 10      of     5 Find Creature   [1,1,0.50]
    ## # ... with 258 more rows
…
``` r
count_context_words <- tokenized %>%
  anti_join(stop_words) %>% #remove function words
  count(word, sort=TRUE)
```

    ## Joining, by = "word"

``` r
count_context_words
```

    ## # A tibble: 86 x 2
    ##       word     n
    ##      <chr> <int>
    ##  1    blue    25
    ##  2  yellow    25
    ##  3    feps    22
    ##  4    wugs    22
    ##  5 lorches    20
    ##  6  purple    20
    ##  7   lorch    11
    ##  8     fep    10
    ##  9     wug     9
    ## 10    bird     7
    ## # ... with 76 more rows
…
``` r
#Count of all words in Find Creature & [1,1,0.5] condition
count_context_words_findCreat_50 <- tokenized_findCreat_50 %>%
  anti_join(stop_words) %>% #remove function words
  count(word, sort=TRUE)
```

    ## Joining, by = "word"

``` r
count_context_words_findCreat_50
```

    ## # A tibble: 37 x 2
    ##       word     n
    ##      <chr> <int>
    ##  1  yellow     7
    ##  2    blue     6
    ##  3    feps     6
    ##  4 lorches     6
    ##  5    wugs     6
    ##  6   heads     5
    ##  7  purple     4
    ##  8  colors     3
    ##  9    head     3
    ## 10  random     3
    ## # ... with 27 more rows

``` r
#Count of all words in Find All & [1,1,0.5] condition
count_context_words_findAll_50 <- tokenized_findAll_50 %>%
  anti_join(stop_words) %>% #remove function words
  count(word, sort=TRUE)
```

    ## Joining, by = "word"

``` r
count_context_words_findAll_50
```

    ## # A tibble: 22 x 2
    ##       word     n
    ##      <chr> <int>
    ##  1 lorches     6
    ##  2    blue     4
    ##  3    feps     4
    ##  4  bodies     3
    ##  5     fep     3
    ##  6    pink     3
    ##  7    wugs     3
    ##  8  yellow     3
    ##  9   beaks     2
    ## 10    gold     2
    ## # ... with 12 more rows

``` r
#Count of all words in Find Creature & [1,1,0.25] condition
count_context_words_findCreat_25 <- tokenized_findCreat_25 %>%
  anti_join(stop_words) %>% #remove function words
  count(word, sort=TRUE)
```

    ## Joining, by = "word"

``` r
count_context_words_findCreat_25
```

    ## # A tibble: 32 x 2
    ##       word     n
    ##      <chr> <int>
    ##  1  yellow     6
    ##  2    feps     4
    ##  3    wugs     4
    ##  4   birds     3
    ##  5    blue     3
    ##  6  bodies     3
    ##  7 finding     3
    ##  8    luck     3
    ##  9   shape     3
    ## 10    body     2
    ## # ... with 22 more rows

``` r
#Count of all words in Find All & [1,1,0.5] condition
count_context_words_findAll_25 <- tokenized_findAll_25 %>%
  anti_join(stop_words) %>% #remove function words
  count(word, sort=TRUE)
```

    ## Joining, by = "word"

``` r
count_context_words_findAll_25
```

    ## # A tibble: 46 x 2
    ##       word     n
    ##      <chr> <int>
    ##  1    blue    12
    ##  2  purple    12
    ##  3    wugs     9
    ##  4  yellow     9
    ##  5    feps     8
    ##  6   lorch     8
    ##  7    bird     6
    ##  8     fep     6
    ##  9 lorches     6
    ## 10     wug     6
    ## # ... with 36 more rows

``` r
count_context_words_byCond <- bind_rows(
  mutate(count_context_words_findCreat_50, condition="Find Creature", distribution="[1,1,0.50]"),
  mutate(count_context_words_findAll_50, condition="Find All", distribution="[1,1,0.25]"),
  mutate(count_context_words_findCreat_25, condition="Find Creature", distribution="[1,1,0.50]"),
  mutate(count_context_words_findAll_25, condition="Find All", distribution="[1,1,0.25]"))
count_context_words_byCond
```

    ## # A tibble: 137 x 4
    ##       word     n     condition distribution
    ##      <chr> <int>         <chr>        <chr>
    ##  1  yellow     7 Find Creature   [1,1,0.50]
    ##  2    blue     6 Find Creature   [1,1,0.50]
    ##  3    feps     6 Find Creature   [1,1,0.50]
    ##  4 lorches     6 Find Creature   [1,1,0.50]
    ##  5    wugs     6 Find Creature   [1,1,0.50]
    ##  6   heads     5 Find Creature   [1,1,0.50]
    ##  7  purple     4 Find Creature   [1,1,0.50]
    ##  8  colors     3 Find Creature   [1,1,0.50]
    ##  9    head     3 Find Creature   [1,1,0.50]
    ## 10  random     3 Find Creature   [1,1,0.50]
    ## # ... with 127 more rows
…
tokenized_noPlurals <- text_noPlurals %>%
  unnest_tokens(word, text)

count_context_words_noPlurals <- tokenized_noPlurals %>%
  anti_join(stop_words) %>%
  count(word, sort=TRUE)
```

    ## Joining, by = "word"

``` r
count_context_words_noPlurals
```

    ## # A tibble: 82 x 2
    ##       word     n
    ##      <chr> <int>
    ##  1     wug    31
    ##  2    blue    25
    ##  3  yellow    25
    ##  4    feps    22
    ##  5 lorches    20
    ##  6  purple    20
    ##  7    bird    12
    ##  8   lorch    11
    ##  9     fep    10
    ## 10    head    10
    ## # ... with 72 more rows
…
