…
Binning Accuracy
================

    ## # A tibble: 767 x 6
    ## # Groups:   gameid_num, trialNum, role [48]
    ##    gameid_num trialNum    role   word     n totalWords
    ##        <fctr>    <dbl>  <fctr>  <chr> <int>      <int>
    ##  1     game_1        4 playerA    and     4         39
    ##  2     game_2        3 playerB  crocs     4         21
    ##  3     game_2        3 playerB   near     4         21
    ##  4     game_5        2 playerB      4     4         38
    ##  5     game_1        1 playerB leaves     3         16
    ##  6     game_1        2 playerA     is     3         21
    ##  7     game_1        3 playerB  crocs     3         41
    ##  8     game_1        3 playerB   near     3         41
    ##  9     game_1        4 playerA     is     3         39
    ## 10     game_1        4 playerA    one     3         39
    ## # ... with 757 more rows
…
